Introduction to prcr • prcr
…
The output has the class prcr and has slots for additional information that can be extracted from it, such as the original data with the clustering assignment added, the r-squared (for comparing the relative fit of different cluster solutions) raw clustered data (i.e., for conducting statistical tests to determine whether the cluster centroids are different from one another and for use in additional analyses) and the processed data (i.e., for creating different plots of the cluster centroids).

two_profile_solution$.data

## # A tibble: 32 x 12
##      mpg   cyl  disp    hp  drat    wt  qsec    vs    am  gear  carb
##    <dbl> <dbl> <dbl> <dbl> <dbl> <dbl> <dbl> <dbl> <dbl> <dbl> <dbl>
##  1  21.0     6 160.0   110  3.90 2.620 16.46     0     1     4     4
##  2  21.0     6 160.0   110  3.90 2.875 17.02     0     1     4     4
##  3  22.8     4 108.0    93  3.85 2.320 18.61     1     1     4     1
##  4  21.4     6 258.0   110  3.08 3.215 19.44     1     0     3     1
##  5  18.7     8 360.0   175  3.15 3.440 17.02     0     0     3     2
##  6  18.1     6 225.0   105  2.76 3.460 20.22     1     0     3     1
##  7  14.3     8 360.0   245  3.21 3.570 15.84     0     0     3     4
##  8  24.4     4 146.7    62  3.69 3.190 20.00     1     0     4     2
##  9  22.8     4 140.8    95  3.92 3.150 22.90     1     0     4     2
## 10  19.2     6 167.6   123  3.92 3.440 18.30     1     0     4     4
## # ... with 22 more rows, and 1 more variables: cluster <int>

two_profile_solution$r_squared

## [1] 0.6544283

two_profile_solution$clustered_raw_data

## # A tibble: 32 x 4
##         disp        hp       wt cluster
##        <dbl>     <dbl>    <dbl>   <int>
##  1 1.2909608 1.6043669 2.677684       1
##  2 1.2909608 1.6043669 2.938298       1
##  3 0.8713986 1.3564193 2.371079       1
##  4 2.0816744 1.6043669 3.285784       1
##  5 2.9046619 2.5524020 3.515738       2
##  6 1.8154137 1.5314412 3.536178       1
##  7 2.9046619 3.5733627 3.648600       2
##  8 1.1836497 0.9042796 3.260234       1
##  9 1.1360455 1.3855896 3.219353       1
## 10 1.3522815 1.7939739 3.515738       1
## # ... with 22 more rows
…
Cross-validation is now able to be carried out, in this example for the two-profile solution, although n_profiles can also be set to the character string"iterate" in order to explore cross-validation output for a range of profile solutions:

cross_validation_output <- cross_validate(df,
                                          disp, hp, wt,
                                          to_scale = TRUE,
                                          n_profiles = 2,
                                          distance_metric = "squared_euclidean",
                                          linkage = "complete", 
                                          k = 30)
cross_validation_output

## # A tibble: 30 x 3
##    k_iteration kappa percentage_agree
##          <int> <dbl>            <dbl>
##  1           1  0.35             0.69
##  2           2    NA               NA
##  3           3  1.00             1.00
##  4           4  1.00             1.00
##  5           5  1.00             1.00
##  6           6  0.87             0.94
##  7           7  1.00             1.00
##  8           8  1.00             1.00
##  9           9    NA               NA
## 10          10  0.87             0.94
## # ... with 20 more rows
…
